{
  "general": {
    "designResolution": {
      "width": 740,
      "height": 1280
    }
  },
  "__version__": "1.0.4",
  "fbx": {
    "legacyFbxImporter": {
      "visible": true
    }
  },
  "custom_joint_texture_layouts": []
}
